id;stars;comment
1;4759;bypass Taiwan invoice
2;91575;Intelligent CFA Franc BCEAO Virginia
3;56074;Usability
4;70471;Jewelery JSON
5;2029;SDR Chair Generic
6;40073;indexing
7;31615;virtual
8;28333;initiative Vermont AGP
9;1693;Cote d'Ivoire Cotton index
10;27548;payment connecting yellow
