{
    "name": "Country",
    "fields": [
        {
            "fieldName": "name",
            "fieldType": "String",
            "fieldValidateRules": [
                "required"
            ]
        }
    ],
    "relationships": [
        {
            "relationshipType": "one-to-many",
            "otherEntityName": "movie",
            "otherEntityRelationshipName": "country",
            "relationshipName": "movie"
        },
        {
            "relationshipType": "one-to-many",
            "otherEntityName": "person",
            "otherEntityRelationshipName": "country",
            "relationshipName": "person"
        }
    ],
    "changelogDate": "20200122141133",
    "entityTableName": "country",
    "dto": "mapstruct",
    "pagination": "no",
    "service": "serviceImpl",
    "jpaMetamodelFiltering": false,
    "fluentMethods": true,
    "readOnly": false,
    "clientRootFolder": "",
    "applications": "*"
}