{
    "name": "Person",
    "fields": [
        {
            "fieldName": "firstName",
            "fieldType": "String",
            "fieldValidateRules": [
                "required"
            ]
        },
        {
            "fieldName": "lastName",
            "fieldType": "String",
            "fieldValidateRules": [
                "required"
            ]
        },
        {
            "fieldName": "isActor",
            "fieldType": "Boolean"
        },
        {
            "fieldName": "isDirector",
            "fieldType": "Boolean"
        }
    ],
    "relationships": [
        {
            "relationshipType": "many-to-one",
            "otherEntityName": "country",
            "otherEntityRelationshipName": "person",
            "relationshipName": "country",
            "otherEntityField": "id"
        },
        {
            "relationshipType": "many-to-many",
            "otherEntityName": "movie",
            "otherEntityRelationshipName": "actor",
            "relationshipName": "starring",
            "otherEntityField": "id",
            "ownerSide": false
        },
        {
            "relationshipType": "many-to-many",
            "otherEntityName": "movie",
            "otherEntityRelationshipName": "director",
            "relationshipName": "production",
            "otherEntityField": "id",
            "ownerSide": false
        }
    ],
    "changelogDate": "20200122141136",
    "entityTableName": "person",
    "dto": "mapstruct",
    "pagination": "no",
    "service": "serviceImpl",
    "jpaMetamodelFiltering": false,
    "fluentMethods": true,
    "readOnly": false,
    "clientRootFolder": "",
    "applications": "*"
}