{
    "name": "Rating",
    "fields": [
        {
            "fieldName": "stars",
            "fieldType": "Integer",
            "fieldValidateRules": [
                "required"
            ]
        },
        {
            "fieldName": "comment",
            "fieldType": "String"
        }
    ],
    "relationships": [
        {
            "relationshipType": "many-to-one",
            "otherEntityName": "movie",
            "otherEntityRelationshipName": "rating",
            "relationshipName": "movie",
            "otherEntityField": "id"
        }
    ],
    "changelogDate": "20200122141137",
    "entityTableName": "rating",
    "dto": "mapstruct",
    "pagination": "no",
    "service": "serviceImpl",
    "jpaMetamodelFiltering": false,
    "fluentMethods": true,
    "readOnly": false,
    "clientRootFolder": "",
    "applications": "*"
}